<?xml version="1.0" encoding="UTF-8"?>
<svg width="29px" height="29px" viewBox="0 0 29 29" version="1.1" xmlns="http://www.w3.org/2000/svg" xmlns:xlink="http://www.w3.org/1999/xlink">
    <!-- Generator: Sketch 50.2 (55047) - http://www.bohemiancoding.com/sketch -->
    <title>close-grey</title>
    <desc>Created with Sketch.</desc>
    <defs></defs>
    <g id="Page-1" stroke="none" stroke-width="1" fill="none" fill-rule="evenodd">
        <g id="close-grey" fill="#C1C0C9" fill-rule="nonzero">
            <path d="M0.585605799,28.4143941 C1.36641353,29.1952019 2.63572662,29.1952019 3.41653435,28.4143941 L14.5,17.3309286 L25.5834657,28.4143941 C26.3642733,29.1952019 27.6335865,29.1952019 28.4143941,28.4143941 C29.1952019,27.6335865 29.1952019,26.3642733 28.4143941,25.5834657 L17.3309286,14.5 L28.4143941,3.41653435 C29.1952019,2.63572662 29.1952019,1.36641353 28.4143941,0.585605799 C27.6335865,-0.195201933 26.3642733,-0.195201933 25.5834657,0.585605799 L14.5,11.6690714 L3.41653435,0.585605799 C2.63572662,-0.195201933 1.36641353,-0.195201933 0.585605799,0.585605799 C-0.195201933,1.36641353 -0.195201933,2.63572662 0.585605799,3.41653435 L11.6690714,14.5 L0.585605799,25.5834657 C-0.195201933,26.3642733 -0.195201933,27.6335865 0.585605799,28.4143941 Z" id="Shape"></path>
        </g>
    </g>
</svg>