<?xml version="1.0" encoding="UTF-8"?>
<svg width="17px" height="18px" viewBox="0 0 17 18" version="1.1" xmlns="http://www.w3.org/2000/svg" xmlns:xlink="http://www.w3.org/1999/xlink">
    <!-- Generator: Sketch 52.5 (67469) - http://www.bohemiancoding.com/sketch -->
    <title>filter</title>
    <desc>Created with Sketch.</desc>
    <defs>
        <polygon id="path-1" points="0 0.0358248175 16.9976462 0.0358248175 16.9976462 18 0 18"></polygon>
    </defs>
    <g id="Page-1" stroke="none" stroke-width="1" fill="none" fill-rule="evenodd">
        <g id="dashboard" transform="translate(-342.000000, -60.000000)">
            <g id="filter" transform="translate(342.000000, 60.000000)">
                <mask id="mask-2" fill="white">
                    <use xlink:href="#path-1"></use>
                </mask>
                <g id="Clip-2"></g>
                <path d="M6.91424872,17.9745109 L10.3288949,16.6739562 C10.4404846,16.6515328 10.5074385,16.5169927 10.5074385,16.4048759 L10.5074385,10.2832993 C10.5074385,9.81240876 10.6636641,9.36394161 10.9314795,8.98274453 L16.9350077,0.529138686 C17.0912333,0.304905109 16.9350077,0.0358248175 16.6895103,0.0358248175 L0.308135897,0.0358248175 C0.0626384615,0.0358248175 -0.0935871795,0.304905109 0.0626384615,0.529138686 L6.06616667,8.98274453 C6.33398205,9.34151825 6.49020769,9.81240876 6.49020769,10.2832993 L6.49020769,17.6605839 C6.51252564,17.9072409 6.71338718,18.0642044 6.91424872,17.9745109" id="Fill-1" fill="#FFFFFF" mask="url(#mask-2)"></path>
            </g>
        </g>
    </g>
</svg>