<?xml version="1.0" encoding="UTF-8"?>
<svg width="17px" height="20px" viewBox="0 0 17 20" version="1.1" xmlns="http://www.w3.org/2000/svg" xmlns:xlink="http://www.w3.org/1999/xlink">
    <!-- Generator: Sketch 52.5 (67469) - http://www.bohemiancoding.com/sketch -->
    <title>Icons/home</title>
    <desc>Created with Sketch.</desc>
    <defs>
        <path d="M8.5,0 C8.5,0 5.66666667,2.66666667 0,8 L0,18.999916 C4.4408921e-16,19.5522471 0.447659361,20 1,20 L6,20 L6,14.9995798 C6,14.4064941 6.43151855,14 7,14 L10,14 C10.5909424,14 11,14.5177002 11,14.9995798 L11,20 L16,20 C16.5523406,20 17,19.5522471 17,18.999916 L17,8 C11.3333333,2.66666667 8.5,0 8.5,0 Z" id="path-1"></path>
    </defs>
    <g id="Page-1" stroke="none" stroke-width="1" fill="none" fill-rule="evenodd">
        <g id="Menu-" transform="translate(-49.000000, -284.000000)">
            <g id="icons" transform="translate(40.000000, 276.000000)">
                <g id="Icons/home" transform="translate(9.000000, 8.000000)">
                    <mask id="mask-2" fill="white">
                        <use xlink:href="#path-1"></use>
                    </mask>
                    <use id="Home" fill="#0E1D25" fill-rule="nonzero" xlink:href="#path-1"></use>
                    <g id="Tint/Light" mask="url(#mask-2)" fill="#FFFFFF">
                        <g transform="translate(-325.000000, -78.000000)" id="Color">
                            <rect x="0" y="0" width="600" height="600"></rect>
                        </g>
                    </g>
                </g>
            </g>
        </g>
    </g>
</svg>