<?xml version="1.0" encoding="UTF-8"?>
<svg width="22px" height="22px" viewBox="0 0 22 22" version="1.1" xmlns="http://www.w3.org/2000/svg" xmlns:xlink="http://www.w3.org/1999/xlink">
    <!-- Generator: Sketch 52.2 (67145) - http://www.bohemiancoding.com/sketch -->
    <title>paper-plane</title>
    <desc>Created with Sketch.</desc>
    <g id="Page-1" stroke="none" stroke-width="1" fill="none" fill-rule="evenodd">
        <g id="paper-plane" fill="#4A4A4A" fill-rule="nonzero">
            <path d="M0.00192668024,11.0102217 C0.0288105906,11.5342783 0.329014257,11.975316 0.763637475,12.1257877 L8.81088798,14.9432406 L9.106611,21.3668255 C9.12005295,21.6210708 9.26791446,21.844184 9.47850509,21.9272028 C9.53675356,21.9531462 9.59948269,21.9635236 9.65773116,21.9635236 C9.81455397,21.9635236 9.96241548,21.8908821 10.0699511,21.7507877 L12.915165,18.1031462 L16.9477515,21.3356934 C17.1269776,21.4809764 17.3375682,21.5588066 17.5571202,21.5588066 C18.0634338,21.5588066 18.5025377,21.1437123 18.6100733,20.5625802 L21.9571202,0.809278302 C21.997446,0.580976415 21.9212749,0.34229717 21.7689328,0.197014151 C21.61211,0.0465424528 21.4015193,0.0102216981 21.213332,0.0984292453 L0.64714053,9.79088208 C0.230439919,10.0088066 -0.0249572301,10.4861651 0.00192668024,11.0102217 Z M10.1281996,19.7739009 L9.94449287,15.7215425 L12.0055927,17.3715425 L10.1281996,19.7739009 Z M17.5391976,20.2668255 L10.19989,14.3828632 L20.491947,2.85361792 L17.5391976,20.2668255 Z M19.3628228,2.34512736 L9.18726273,13.7446557 L1.14897352,10.9323915 L19.3628228,2.34512736 Z" id="Shape"></path>
        </g>
    </g>
</svg>