<?xml version="1.0" encoding="UTF-8"?>
<svg width="20px" height="20px" viewBox="0 0 20 20" version="1.1" xmlns="http://www.w3.org/2000/svg" xmlns:xlink="http://www.w3.org/1999/xlink">
    <!-- Generator: Sketch 52.5 (67469) - http://www.bohemiancoding.com/sketch -->
    <title>Icons/settings</title>
    <desc>Created with Sketch.</desc>
    <defs>
        <path d="M19.2,8.24 L17.904,8 C17.4418584,7.88734995 17.0608327,7.56163594 16.8776573,7.12264659 C16.6944819,6.68365725 16.7309912,6.18371998 16.976,5.776 L17.72,4.8 C18.0131772,4.38836901 17.9622169,3.82440862 17.6,3.472 L16.52,2.4 C16.1687179,2.04222764 15.6100397,1.99143871 15.2,2.28 L14.16,3.024 C13.7515888,3.26273032 13.2562758,3.30105811 12.816,3.128 C12.4086097,2.91691407 12.1114455,2.54108875 12,2.096 L11.76,0.8 C11.6564561,0.337875207 11.2495304,0.00704132888 10.776,0 L9.232,0 C8.75546559,0.00335321111 8.34423269,0.334992648 8.24,0.8 L8,2.096 C7.88429258,2.54844979 7.56393151,2.92090806 7.13387327,3.10297651 C6.70381502,3.28504497 6.21340392,3.25583331 5.808,3.024 L4.8,2.28 C4.38996029,1.99143871 3.83128211,2.04222764 3.48,2.4 L2.4,3.472 C2.03778305,3.82440862 1.98682278,4.38836901 2.28,4.8 L3.024,5.84 C3.24308089,6.24284814 3.26530021,6.72392123 3.0842855,7.14524858 C2.90327078,7.56657593 2.5390202,7.88161011 2.096,8 L0.8,8.24 C0.337875207,8.34354389 0.00704132888,8.75046956 0,9.224 L0,10.768 C0.00335321111,11.2445344 0.334992648,11.6557673 0.8,11.76 L2.096,12 C2.55814159,12.11265 2.93916729,12.4383641 3.1223427,12.8773534 C3.30551811,13.3163428 3.26900877,13.81628 3.024,14.224 L2.28,15.2 C1.98682278,15.611631 2.03778305,16.1755914 2.4,16.528 L3.48,17.6 C3.83128211,17.9577724 4.38996029,18.0085613 4.8,17.72 L5.84,16.976 C6.24284814,16.7569191 6.72392123,16.7346998 7.14524858,16.9157145 C7.56657593,17.0967292 7.88161011,17.4609798 8,17.904 L8.24,19.2 C8.34354389,19.6621248 8.75046956,19.9929587 9.224,20 L10.768,20 C11.2415304,19.9929587 11.6484561,19.6621248 11.752,19.2 L12,17.904 C12.11265,17.4418584 12.4383641,17.0608327 12.8773534,16.8776573 C13.3163428,16.6944819 13.81628,16.7309912 14.224,16.976 L15.264,17.72 C15.6605141,17.9733127 16.1786252,17.9238117 16.52,17.6 L17.6,16.528 C17.9622169,16.1755914 18.0131772,15.611631 17.72,15.2 L16.976,14.16 C16.7569191,13.7571519 16.7346998,13.2760788 16.9157145,12.8547514 C17.0967292,12.4334241 17.4609798,12.1183899 17.904,12 L19.2,11.76 C19.6621248,11.6564561 19.9929587,11.2495304 20,10.776 L20,9.232 C19.9966468,8.75546559 19.6650074,8.34423269 19.2,8.24 Z M13.6,10 C13.6,11.9882251 11.9882251,13.6 10,13.6 C8.0117749,13.6 6.4,11.9882251 6.4,10 C6.4,8.0117749 8.0117749,6.4 10,6.4 C11.9882251,6.4 13.6,8.0117749 13.6,10 Z" id="path-1"></path>
    </defs>
    <g id="Page-1" stroke="none" stroke-width="1" fill="none" fill-rule="evenodd">
        <g id="Menu-" transform="translate(-48.000000, -546.000000)">
            <g id="icons" transform="translate(40.000000, 276.000000)">
                <g id="Icons/settings" transform="translate(8.000000, 270.000000)">
                    <mask id="mask-2" fill="white">
                        <use xlink:href="#path-1"></use>
                    </mask>
                    <use id="Settings" fill="#0E1D25" fill-rule="nonzero" xlink:href="#path-1"></use>
                    <g id="Tint/Light" mask="url(#mask-2)" fill="#FFFFFF">
                        <g transform="translate(-324.000000, -78.000000)" id="Color">
                            <rect x="0" y="0" width="600" height="600"></rect>
                        </g>
                    </g>
                </g>
            </g>
        </g>
    </g>
</svg>