<?xml version="1.0" encoding="UTF-8"?>
<svg width="108px" height="125px" viewBox="0 0 108 125" version="1.1" xmlns="http://www.w3.org/2000/svg" xmlns:xlink="http://www.w3.org/1999/xlink">
    <!-- Generator: Sketch 52.5 (67469) - http://www.bohemiancoding.com/sketch -->
    <title>spread love</title>
    <desc>Created with Sketch.</desc>
    <g id="Page-1" stroke="none" stroke-width="1" fill="none" fill-rule="evenodd">
        <g id="max-swipes" transform="translate(-134.000000, -265.000000)">
            <g id="spread-love" transform="translate(134.000000, 265.000000)">
                <polygon id="Path-8-Copy" fill="#9FCCD3" transform="translate(53.827263, 61.381946) scale(1, -1) translate(-53.827263, -61.381946) " points="0 82.0335554 53.7680837 40.7303371 107.654525 82.0335554"></polygon>
                <path d="M54.3957063,51.337969 C50.2012184,47.3336591 45.582251,45.7637728 40.538804,46.6283098 C32.9736334,47.9251154 27.9487179,51.358703 27.9487179,63.7194954 C27.9487179,71.9600236 36.5959742,85.2236789 53.8904867,103.510461 C71.644734,84.3276223 80.5218576,71.063967 80.5218576,63.7194954 C80.5218576,52.702788 75.2586787,48.0902862 67.3611611,46.6283098 C62.0961494,45.6536589 57.7743311,47.2235453 54.3957063,51.337969 Z" id="Path-9" fill="#E06063"></path>
                <polygon id="Path-7" fill="#FAF5D8" points="0 40.7303371 0 124.813463 107.580041 124.813463 107.580041 40.7303371 53.7900207 82.7719003"></polygon>
                <polygon id="Path-8" fill="#F7EBBB" points="0 124.168387 53.7680837 82.8651685 107.654525 124.168387"></polygon>
                <polygon id="Path-8-Copy-2" fill="#AEDFE5" points="0 41.3032183 53.7680837 0 107.654525 41.3032183"></polygon>
            </g>
        </g>
    </g>
</svg>