<?xml version="1.0" encoding="UTF-8"?>
<svg width="24px" height="21px" viewBox="0 0 24 21" version="1.1" xmlns="http://www.w3.org/2000/svg" xmlns:xlink="http://www.w3.org/1999/xlink">
    <!-- Generator: Sketch 52.5 (67469) - http://www.bohemiancoding.com/sketch -->
    <title>Icons/video</title>
    <desc>Created with Sketch.</desc>
    <g id="Page-1" stroke="none" stroke-width="1" fill="none" fill-rule="evenodd">
        <g id="Menu-" transform="translate(-46.000000, -336.000000)" fill="#FFFFFF">
            <g id="icons" transform="translate(40.000000, 276.000000)">
                <g id="Icons/video" transform="translate(6.000000, 60.666667)">
                    <path d="M14.342015,3.43201409 C15.440912,4.12160534 16.2116971,5.287237 16.3518398,6.64157939 C16.7993327,6.84993975 17.2976179,6.9700621 17.8248216,6.9700621 C19.7497451,6.9700621 21.3105941,5.41032533 21.3105941,3.48577255 C21.3105941,1.55973677 19.7497451,0 17.8248216,0 C15.9176939,0 14.3709334,1.53193067 14.342015,3.43201409 Z M12.0578367,10.5689128 C13.9842432,10.5689128 15.54398,9.00917601 15.54398,7.08314024 C15.54398,5.15858745 13.9842432,3.59885068 12.0578367,3.59885068 C10.1332839,3.59885068 8.57206414,5.15858745 8.57206414,7.08462323 C8.57206414,9.00917601 10.1332839,10.5689128 12.0578367,10.5689128 Z M13.5367504,10.8065622 L10.5792937,10.8065622 C8.11863935,10.8065622 6.11585875,12.8093428 6.11585875,15.2699972 L6.11585875,18.887756 L6.12586894,18.9441097 L6.37501159,19.0223376 C8.72258782,19.7553063 10.7631847,20 12.4430438,20 C15.723422,20 17.6235054,19.0657151 17.7421448,19.0049124 L17.9738623,18.887756 L17.9987024,18.887756 L17.9987024,15.2699972 C18.0001854,12.8093428 15.997034,10.8065622 13.5367504,10.8065622 Z M19.3033645,7.20919455 L16.369265,7.20919455 C16.3373807,8.38224117 15.8365001,9.44072667 15.0427287,10.2011308 C17.2312541,10.8514227 18.8314024,12.8790435 18.8314024,15.2759292 L18.8314024,16.3896561 C21.7291686,16.2836222 23.3990175,15.4627862 23.5091297,15.4075447 L23.7408472,15.2889054 L23.7667995,15.2889054 L23.7667995,11.6711465 C23.7667995,9.21049217 21.7640189,7.20919455 19.3033645,7.20919455 Z M5.94197794,6.97154509 C6.62415423,6.97154509 7.25850403,6.77171193 7.79571786,6.43284827 C7.96663268,5.31912133 8.56501993,4.34442488 9.41774029,3.68115673 C9.42070627,3.61627584 9.42812123,3.55250718 9.42812123,3.48577255 C9.42812123,1.56121976 7.86690147,0 5.94197794,0 C4.01742516,0 2.45620539,1.56121976 2.45620539,3.48577255 C2.45620539,5.41032533 4.01742516,6.97154509 5.94197794,6.97154509 Z M9.07331541,10.2011308 C8.28399296,9.44369265 7.78422467,8.39225137 7.74789137,7.22513671 C7.63926221,7.21772175 7.53063305,7.20919455 7.42089165,7.20919455 L4.46343498,7.20919455 C2.00129762,7.20919455 0,9.21049217 0,11.6711465 L0,15.2889054 L0.00852720363,15.3452591 L0.257669849,15.4234869 C2.1418111,16.0114932 3.82315321,16.28251 5.28464176,16.367782 L5.28464176,15.2759292 C5.28464176,12.8790435 6.88479006,10.8514227 9.07331541,10.2011308 Z" id="multiple-users-silhouette"></path>
                </g>
            </g>
        </g>
    </g>
</svg>