<?xml version="1.0" encoding="UTF-8"?>
<svg width="24px" height="34px" viewBox="0 0 24 34" version="1.1" xmlns="http://www.w3.org/2000/svg" xmlns:xlink="http://www.w3.org/1999/xlink">
    <!-- Generator: Sketch 52.2 (67145) - http://www.bohemiancoding.com/sketch -->
    <title>icons8-arrow-50 copy</title>
    <desc>Created with Sketch.</desc>
    <g id="Page-1" stroke="none" stroke-width="1" fill="none" fill-rule="evenodd">
        <g id="icons8-arrow-50-copy" transform="translate(12.000000, 17.000000) rotate(90.000000) translate(-12.000000, -17.000000) translate(-5.000000, 5.000000)" fill="#FFFFFF">
            <path d="M19.398438,23.199219 C19.277344,23.199219 19.15625,23.171875 19.046875,23.117188 C18.773438,22.980469 18.601562,22.703125 18.601562,22.398438 L18.601562,16 L1,16 C0.558594,16 0.199219,15.640625 0.199219,15.199219 L0.199219,8.800781 C0.199219,8.359375 0.558594,8 1,8 L18.601562,8 L18.601562,1.601562 C18.601562,1.296875 18.773438,1.019531 19.046875,0.882812 C19.320312,0.75 19.644531,0.78125 19.886719,0.964844 L33.488281,11.363281 C33.683594,11.515625 33.800781,11.75 33.800781,12 C33.800781,12.25 33.683594,12.484375 33.484375,12.636719 L19.886719,23.035156 C19.742188,23.144531 19.574219,23.199219 19.398438,23.199219 Z" id="Path"></path>
        </g>
    </g>
</svg>